[(move v0 l0 l1 f1 f0), (load c0 v0 l1 s2 s1), (move v0 l1 l0 f2 f1), (unload c0 v0 l0 s1 s2)];[ (at v0 l0),(has-fuel l0 f1),(has-fuel l1 f2),(at v1 l0),(has-space v0 s2),(at c0 l1),(has-space v1 s1),(at c1 l1)];[ (at c0 l0),(at c1 l1)];[(operator: move v0 l0 l1 f1 f0), (state: (at c1 l1)), (state: (has-space v1 s1)), (state: (at c0 l1)), (state: (has-space v0 s2)), (state: (at v1 l0)), (state: (has-fuel l1 f2)), (state: (has-fuel l0 f0)), (state: (at v0 l1)), (operator: load c0 v0 l1 s2 s1), (state: (at c1 l1)), (state: (has-space v1 s1)), (state: (in c0 v0)), (state: (has-space v0 s1)), (state: (at v1 l0)), (state: (has-fuel l1 f2)), (state: (has-fuel l0 f0)), (state: (at v0 l1)), (operator: move v0 l1 l0 f2 f1), (state: (at c1 l1)), (state: (has-space v1 s1)), (state: (in c0 v0)), (state: (has-space v0 s1)), (state: (at v1 l0)), (state: (has-fuel l1 f1)), (state: (has-fuel l0 f0)), (state: (at v0 l0)), (operator: unload c0 v0 l0 s1 s2), (state: (at c1 l1)), (state: (has-space v1 s1)), (state: (has-space v0 s2)), (state: (at c0 l0)), (state: (at v1 l0)), (state: (has-fuel l1 f1)), (state: (has-fuel l0 f0)), (state: (at v0 l0))];
[(move v0 l0 l1 f2 f1), (load c0 v0 l1 s1 s0), (move v0 l1 l0 f2 f1), (unload c0 v0 l0 s0 s1)];[ (at v0 l0),(has-fuel l0 f2),(has-fuel l1 f2),(at v1 l0),(has-space v0 s1),(at c0 l1),(has-space v1 s1),(at c1 l1)];[ (at c0 l0),(at c1 l1)];[(operator: move v0 l0 l1 f2 f1), (state: (at c1 l1)), (state: (has-space v1 s1)), (state: (at c0 l1)), (state: (has-space v0 s1)), (state: (at v1 l0)), (state: (has-fuel l1 f2)), (state: (at v0 l1)), (state: (has-fuel l0 f1)), (operator: load c0 v0 l1 s1 s0), (state: (at c1 l1)), (state: (has-space v1 s1)), (state: (has-space v0 s0)), (state: (in c0 v0)), (state: (at v1 l0)), (state: (has-fuel l1 f2)), (state: (at v0 l1)), (state: (has-fuel l0 f1)), (operator: move v0 l1 l0 f2 f1), (state: (at c1 l1)), (state: (has-space v1 s1)), (state: (has-space v0 s0)), (state: (in c0 v0)), (state: (at v1 l0)), (state: (has-fuel l1 f1)), (state: (has-fuel l0 f1)), (state: (at v0 l0)), (operator: unload c0 v0 l0 s0 s1), (state: (at c1 l1)), (state: (has-space v1 s1)), (state: (has-space v0 s1)), (state: (at c0 l0)), (state: (at v1 l0)), (state: (has-fuel l1 f1)), (state: (has-fuel l0 f1)), (state: (at v0 l0))];
[(move v0 l1 l0 f1 f0), (load c1 v0 l0 s2 s1), (move v0 l0 l1 f1 f0), (unload c1 v0 l1 s1 s2)];[ (has-fuel l0 f1),(at v0 l1),(has-fuel l1 f1),(at v1 l1),(at c0 l0),(has-space v0 s2),(has-space v1 s2),(at c1 l0)];[ (at c0 l0),(at c1 l1)];[(operator: move v0 l1 l0 f1 f0), (state: (at c1 l0)), (state: (has-space v1 s2)), (state: (has-space v0 s2)), (state: (at c0 l0)), (state: (at v1 l1)), (state: (has-fuel l1 f0)), (state: (has-fuel l0 f1)), (state: (at v0 l0)), (operator: load c1 v0 l0 s2 s1), (state: (in c1 v0)), (state: (has-space v1 s2)), (state: (has-space v0 s1)), (state: (at c0 l0)), (state: (at v1 l1)), (state: (has-fuel l1 f0)), (state: (has-fuel l0 f1)), (state: (at v0 l0)), (operator: move v0 l0 l1 f1 f0), (state: (in c1 v0)), (state: (has-space v1 s2)), (state: (has-space v0 s1)), (state: (at c0 l0)), (state: (at v1 l1)), (state: (has-fuel l1 f0)), (state: (has-fuel l0 f0)), (state: (at v0 l1)), (operator: unload c1 v0 l1 s1 s2), (state: (at c1 l1)), (state: (has-space v1 s2)), (state: (has-space v0 s2)), (state: (at c0 l0)), (state: (at v1 l1)), (state: (has-fuel l1 f0)), (state: (has-fuel l0 f0)), (state: (at v0 l1))];
[(load c1 v1 l0 s2 s1), (move v1 l0 l1 f2 f1), (unload c1 v1 l1 s1 s2)];[ (at v0 l1),(has-fuel l0 f2),(has-fuel l1 f1),(at v1 l0),(at c0 l0),(has-space v0 s1),(has-space v1 s2),(at c1 l0)];[ (at c0 l0),(at c1 l1)];[(operator: load c1 v1 l0 s2 s1), (state: (in c1 v1)), (state: (has-space v1 s1)), (state: (has-space v0 s1)), (state: (at c0 l0)), (state: (at v1 l0)), (state: (has-fuel l1 f1)), (state: (has-fuel l0 f2)), (state: (at v0 l1)), (operator: move v1 l0 l1 f2 f1), (state: (in c1 v1)), (state: (has-space v1 s1)), (state: (has-space v0 s1)), (state: (at c0 l0)), (state: (at v1 l1)), (state: (has-fuel l1 f1)), (state: (at v0 l1)), (state: (has-fuel l0 f1)), (operator: unload c1 v1 l1 s1 s2), (state: (at c1 l1)), (state: (has-space v1 s2)), (state: (has-space v0 s1)), (state: (at c0 l0)), (state: (at v1 l1)), (state: (has-fuel l1 f1)), (state: (at v0 l1)), (state: (has-fuel l0 f1))];
[(load c0 v1 l0 s1 s0), (move v1 l0 l1 f1 f0), (unload c0 v1 l1 s0 s1), (load c1 v1 l1 s1 s0), (move v1 l1 l0 f1 f0), (unload c1 v1 l0 s0 s1)];[ (at v0 l0),(has-fuel l0 f1),(has-fuel l1 f1),(at v1 l0),(at c0 l0),(has-space v0 s1),(has-space v1 s1),(at c1 l1)];[ (at c0 l1),(at c1 l0)];[(operator: load c0 v1 l0 s1 s0), (state: (at c1 l1)), (state: (has-space v1 s0)), (state: (in c0 v1)), (state: (has-space v0 s1)), (state: (at v1 l0)), (state: (has-fuel l1 f1)), (state: (has-fuel l0 f1)), (state: (at v0 l0)), (operator: move v1 l0 l1 f1 f0), (state: (at c1 l1)), (state: (has-space v1 s0)), (state: (in c0 v1)), (state: (has-space v0 s1)), (state: (at v1 l1)), (state: (has-fuel l1 f1)), (state: (has-fuel l0 f0)), (state: (at v0 l0)), (operator: unload c0 v1 l1 s0 s1), (state: (at c1 l1)), (state: (has-space v1 s1)), (state: (at c0 l1)), (state: (has-space v0 s1)), (state: (at v1 l1)), (state: (has-fuel l1 f1)), (state: (has-fuel l0 f0)), (state: (at v0 l0)), (operator: load c1 v1 l1 s1 s0), (state: (in c1 v1)), (state: (has-space v1 s0)), (state: (at c0 l1)), (state: (has-space v0 s1)), (state: (at v1 l1)), (state: (has-fuel l1 f1)), (state: (has-fuel l0 f0)), (state: (at v0 l0)), (operator: move v1 l1 l0 f1 f0), (state: (in c1 v1)), (state: (has-space v1 s0)), (state: (at c0 l1)), (state: (has-space v0 s1)), (state: (at v1 l0)), (state: (has-fuel l1 f0)), (state: (has-fuel l0 f0)), (state: (at v0 l0)), (operator: unload c1 v1 l0 s0 s1), (state: (at c1 l0)), (state: (has-space v1 s1)), (state: (at c0 l1)), (state: (has-space v0 s1)), (state: (at v1 l0)), (state: (has-fuel l1 f0)), (state: (has-fuel l0 f0)), (state: (at v0 l0))];
[(load c1 v0 l0 s1 s0), (load c0 v1 l1 s1 s0), (move v0 l0 l1 f2 f1), (unload c1 v0 l1 s0 s1), (move v1 l1 l0 f2 f1), (unload c0 v1 l0 s0 s1)];[ (at v0 l0),(has-fuel l0 f2),(has-fuel l1 f2),(at v1 l1),(has-space v0 s1),(at c0 l1),(has-space v1 s1),(at c1 l0)];[ (at c0 l0),(at c1 l1)];[(operator: load c1 v0 l0 s1 s0), (state: (in c1 v0)), (state: (has-space v1 s1)), (state: (at c0 l1)), (state: (has-space v0 s0)), (state: (at v1 l1)), (state: (has-fuel l1 f2)), (state: (has-fuel l0 f2)), (state: (at v0 l0)), (operator: load c0 v1 l1 s1 s0), (state: (in c1 v0)), (state: (has-space v1 s0)), (state: (in c0 v1)), (state: (has-space v0 s0)), (state: (at v1 l1)), (state: (has-fuel l1 f2)), (state: (has-fuel l0 f2)), (state: (at v0 l0)), (operator: move v0 l0 l1 f2 f1), (state: (in c1 v0)), (state: (has-space v1 s0)), (state: (in c0 v1)), (state: (has-space v0 s0)), (state: (at v1 l1)), (state: (has-fuel l1 f2)), (state: (at v0 l1)), (state: (has-fuel l0 f1)), (operator: unload c1 v0 l1 s0 s1), (state: (at c1 l1)), (state: (has-space v1 s0)), (state: (in c0 v1)), (state: (has-space v0 s1)), (state: (at v1 l1)), (state: (has-fuel l1 f2)), (state: (at v0 l1)), (state: (has-fuel l0 f1)), (operator: move v1 l1 l0 f2 f1), (state: (at c1 l1)), (state: (has-space v1 s0)), (state: (in c0 v1)), (state: (has-space v0 s1)), (state: (at v1 l0)), (state: (has-fuel l1 f1)), (state: (at v0 l1)), (state: (has-fuel l0 f1)), (operator: unload c0 v1 l0 s0 s1), (state: (at c1 l1)), (state: (has-space v1 s1)), (state: (has-space v0 s1)), (state: (at c0 l0)), (state: (at v1 l0)), (state: (has-fuel l1 f1)), (state: (at v0 l1)), (state: (has-fuel l0 f1))];
[(load c0 v0 l0 s1 s0), (move v0 l0 l1 f1 f0), (unload c0 v0 l1 s0 s1)];[ (at v0 l0),(has-fuel l0 f1),(has-fuel l1 f1),(at v1 l1),(at c0 l0),(has-space v0 s1),(has-space v1 s1),(at c1 l0)];[ (at c0 l1),(at c1 l0)];[(operator: load c0 v0 l0 s1 s0), (state: (at c1 l0)), (state: (has-space v1 s1)), (state: (has-space v0 s0)), (state: (in c0 v0)), (state: (at v1 l1)), (state: (has-fuel l1 f1)), (state: (has-fuel l0 f1)), (state: (at v0 l0)), (operator: move v0 l0 l1 f1 f0), (state: (at c1 l0)), (state: (has-space v1 s1)), (state: (has-space v0 s0)), (state: (in c0 v0)), (state: (at v1 l1)), (state: (has-fuel l1 f1)), (state: (has-fuel l0 f0)), (state: (at v0 l1)), (operator: unload c0 v0 l1 s0 s1), (state: (at c1 l0)), (state: (has-space v1 s1)), (state: (at c0 l1)), (state: (has-space v0 s1)), (state: (at v1 l1)), (state: (has-fuel l1 f1)), (state: (has-fuel l0 f0)), (state: (at v0 l1))];
[(load c1 v0 l1 s1 s0), (move v0 l1 l0 f1 f0), (unload c1 v0 l0 s0 s1)];[ (at v0 l1),(has-fuel l0 f0),(has-fuel l1 f1),(at v1 l1),(has-space v0 s1),(at c0 l1),(has-space v1 s2),(at c1 l1)];[ (at c0 l1),(at c1 l0)];[(operator: load c1 v0 l1 s1 s0), (state: (in c1 v0)), (state: (has-space v1 s2)), (state: (at c0 l1)), (state: (has-space v0 s0)), (state: (at v1 l1)), (state: (has-fuel l1 f1)), (state: (has-fuel l0 f0)), (state: (at v0 l1)), (operator: move v0 l1 l0 f1 f0), (state: (in c1 v0)), (state: (has-space v1 s2)), (state: (at c0 l1)), (state: (has-space v0 s0)), (state: (at v1 l1)), (state: (has-fuel l1 f0)), (state: (has-fuel l0 f0)), (state: (at v0 l0)), (operator: unload c1 v0 l0 s0 s1), (state: (at c1 l0)), (state: (has-space v1 s2)), (state: (at c0 l1)), (state: (has-space v0 s1)), (state: (at v1 l1)), (state: (has-fuel l1 f0)), (state: (has-fuel l0 f0)), (state: (at v0 l0))];
[(load c1 v1 l0 s2 s1), (move v1 l0 l1 f1 f0), (unload c1 v1 l1 s1 s2), (load c0 v1 l1 s2 s1), (move v1 l1 l0 f1 f0), (unload c0 v1 l0 s1 s2)];[ (at v0 l0),(has-fuel l0 f1),(has-fuel l1 f1),(at v1 l0),(has-space v0 s2),(at c0 l1),(has-space v1 s2),(at c1 l0)];[ (at c0 l0),(at c1 l1)];[(operator: load c1 v1 l0 s2 s1), (state: (in c1 v1)), (state: (has-space v1 s1)), (state: (at c0 l1)), (state: (has-space v0 s2)), (state: (at v1 l0)), (state: (has-fuel l1 f1)), (state: (has-fuel l0 f1)), (state: (at v0 l0)), (operator: move v1 l0 l1 f1 f0), (state: (in c1 v1)), (state: (has-space v1 s1)), (state: (at c0 l1)), (state: (has-space v0 s2)), (state: (at v1 l1)), (state: (has-fuel l1 f1)), (state: (has-fuel l0 f0)), (state: (at v0 l0)), (operator: unload c1 v1 l1 s1 s2), (state: (at c1 l1)), (state: (has-space v1 s2)), (state: (at c0 l1)), (state: (has-space v0 s2)), (state: (at v1 l1)), (state: (has-fuel l1 f1)), (state: (has-fuel l0 f0)), (state: (at v0 l0)), (operator: load c0 v1 l1 s2 s1), (state: (at c1 l1)), (state: (in c0 v1)), (state: (has-space v1 s1)), (state: (has-space v0 s2)), (state: (at v1 l1)), (state: (has-fuel l1 f1)), (state: (has-fuel l0 f0)), (state: (at v0 l0)), (operator: move v1 l1 l0 f1 f0), (state: (at c1 l1)), (state: (in c0 v1)), (state: (has-space v1 s1)), (state: (has-space v0 s2)), (state: (at v1 l0)), (state: (has-fuel l1 f0)), (state: (has-fuel l0 f0)), (state: (at v0 l0)), (operator: unload c0 v1 l0 s1 s2), (state: (at c1 l1)), (state: (has-space v1 s2)), (state: (has-space v0 s2)), (state: (at c0 l0)), (state: (at v1 l0)), (state: (has-fuel l1 f0)), (state: (has-fuel l0 f0)), (state: (at v0 l0))];
[(load c0 v1 l0 s2 s1), (load c1 v1 l0 s1 s0), (move v1 l0 l1 f2 f1), (unload c0 v1 l1 s0 s1), (unload c1 v1 l1 s1 s2)];[ (at v0 l1),(has-fuel l0 f2),(has-fuel l1 f1),(at v1 l0),(at c0 l0),(has-space v0 s2),(has-space v1 s2),(at c1 l0)];[ (at c0 l1),(at c1 l1)];[(operator: load c0 v1 l0 s2 s1), (state: (at c1 l0)), (state: (in c0 v1)), (state: (has-space v1 s1)), (state: (has-space v0 s2)), (state: (at v1 l0)), (state: (has-fuel l1 f1)), (state: (has-fuel l0 f2)), (state: (at v0 l1)), (operator: load c1 v1 l0 s1 s0), (state: (in c1 v1)), (state: (has-space v1 s0)), (state: (in c0 v1)), (state: (has-space v0 s2)), (state: (at v1 l0)), (state: (has-fuel l1 f1)), (state: (has-fuel l0 f2)), (state: (at v0 l1)), (operator: move v1 l0 l1 f2 f1), (state: (in c1 v1)), (state: (has-space v1 s0)), (state: (in c0 v1)), (state: (has-space v0 s2)), (state: (at v1 l1)), (state: (has-fuel l1 f1)), (state: (at v0 l1)), (state: (has-fuel l0 f1)), (operator: unload c0 v1 l1 s0 s1), (state: (in c1 v1)), (state: (has-space v1 s1)), (state: (at c0 l1)), (state: (has-space v0 s2)), (state: (at v1 l1)), (state: (has-fuel l1 f1)), (state: (at v0 l1)), (state: (has-fuel l0 f1)), (operator: unload c1 v1 l1 s1 s2), (state: (at c1 l1)), (state: (has-space v1 s2)), (state: (at c0 l1)), (state: (has-space v0 s2)), (state: (at v1 l1)), (state: (has-fuel l1 f1)), (state: (at v0 l1)), (state: (has-fuel l0 f1))];