pick -1 pick -1 move -1 pick -1 pick -1 pick -1 move -1 move -1 move -1 drop -1 drop -1 drop -1 drop -1 drop -1 -2
pick -1 pick -1 move -1 drop -1 pick -1 move -1 drop -1 pick -1 drop -1 move -1 pick -1 move -1 drop -1 move -1 drop -1 -2
pick -1 move -1 pick -1 move -1 pick -1 drop -1 drop -1 pick -1 move -1 pick -1 move -1 drop -1 drop -1 move -1 pick -1 move -1 drop -1 move -1 drop -1 -2
pick -1 pick -1 move -1 pick -1 move -1 pick -1 move -1 drop -1 drop -1 pick -1 move -1 pick -1 move -1 drop -1 drop -1 drop -1 drop -1 -2
move -1 pick -1 move -1 drop -1 move -1 pick -1 pick -1 move -1 move -1 pick -1 drop -1 pick -1 drop -1 move -1 move -1 drop -1 drop -1 -2
pick -1 pick -1 move -1 drop -1 pick -1 drop -1 pick -1 move -1 drop -1 drop -1 -2
pick -1 pick -1 move -1 move -1 drop -1 drop -1 -2
pick -1 pick -1 move -1 pick -1 pick -1 move -1 move -1 drop -1 drop -1 drop -1 drop -1 -2
pick -1 move -1 drop -1 move -1 pick -1 move -1 drop -1 -2
pick -1 pick -1 move -1 drop -1 move -1 pick -1 move -1 drop -1 pick -1 move -1 pick -1 drop -1 drop -1 move -1 drop -1 -2
